<svg version="1.1" id="Macbook_1_" x="0px" y="0px"
	 width="1476px" height="1008px" viewBox="0 0 1476 1008" >
  <linearGradient id="grad2" x1="0%" y1="0%" x2="0%" y2="100%">
      <stop offset="0%" style="stop-color:rgb(255,255,0);stop-opacity:1" />
      <stop offset="100%" style="stop-color:rgb(255,0,0);stop-opacity:1" />
    </linearGradient>
  <path d="M108 735 L27 305 L553 43 L631 474 " style=" fill:url(#grad2)"/>
</svg>